(kicad_symbol_lib
	(version 20231120)
	(generator "kicad_symbol_editor")
	(generator_version "8.0")
	(symbol "Jumper_2_Bridged"
		(pin_names
			(offset 0) hide)
		(exclude_from_sim no)
		(in_bom yes)
		(on_board yes)
		(property "Reference" "JP"
			(at 0 1.905 0)
			(effects
				(font
					(size 1.27 1.27)
				)
			)
		)
		(property "Value" "Jumper_2_Bridged"
			(at 0 -2.54 0)
			(effects
				(font
					(size 1.27 1.27)
				)
			)
		)
		(property "Footprint" ""
			(at 0 0 0)
			(effects
				(font
					(size 1.27 1.27)
				)
				(hide yes)
			)
		)
		(property "Datasheet" "~"
			(at 0 0 0)
			(effects
				(font
					(size 1.27 1.27)
				)
				(hide yes)
			)
		)
		(property "Description" "Jumper, 2-pole, closed/bridged"
			(at 0 0 0)
			(effects
				(font
					(size 1.27 1.27)
				)
				(hide yes)
			)
		)
		(property "ki_keywords" "Jumper SPST"
			(at 0 0 0)
			(effects
				(font
					(size 1.27 1.27)
				)
				(hide yes)
			)
		)
		(property "ki_fp_filters" "Jumper* TestPoint*2Pads* TestPoint*Bridge*"
			(at 0 0 0)
			(effects
				(font
					(size 1.27 1.27)
				)
				(hide yes)
			)
		)
		(symbol "Jumper_2_Bridged_0_0"
			(circle
				(center -2.032 0)
				(radius 0.508)
				(stroke
					(width 0)
					(type default)
				)
				(fill
					(type none)
				)
			)
			(circle
				(center 2.032 0)
				(radius 0.508)
				(stroke
					(width 0)
					(type default)
				)
				(fill
					(type none)
				)
			)
		)
		(symbol "Jumper_2_Bridged_0_1"
			(arc
				(start 1.524 0.254)
				(mid 0 0.762)
				(end -1.524 0.254)
				(stroke
					(width 0)
					(type default)
				)
				(fill
					(type none)
				)
			)
		)
		(symbol "Jumper_2_Bridged_1_1"
			(pin passive line
				(at -5.08 0 0)
				(length 2.54)
				(name "A"
					(effects
						(font
							(size 1.27 1.27)
						)
					)
				)
				(number "1"
					(effects
						(font
							(size 1.27 1.27)
						)
					)
				)
			)
			(pin passive line
				(at 5.08 0 180)
				(length 2.54)
				(name "B"
					(effects
						(font
							(size 1.27 1.27)
						)
					)
				)
				(number "2"
					(effects
						(font
							(size 1.27 1.27)
						)
					)
				)
			)
		)
	)
	(symbol "Jumper_2_Open"
		(pin_names
			(offset 0) hide)
		(exclude_from_sim no)
		(in_bom yes)
		(on_board yes)
		(property "Reference" "JP"
			(at 0 2.794 0)
			(effects
				(font
					(size 1.27 1.27)
				)
			)
		)
		(property "Value" "Jumper_2_Open"
			(at 0 -2.286 0)
			(effects
				(font
					(size 1.27 1.27)
				)
			)
		)
		(property "Footprint" ""
			(at 0 0 0)
			(effects
				(font
					(size 1.27 1.27)
				)
				(hide yes)
			)
		)
		(property "Datasheet" "~"
			(at 0 0 0)
			(effects
				(font
					(size 1.27 1.27)
				)
				(hide yes)
			)
		)
		(property "Description" "Jumper, 2-pole, open"
			(at 0 0 0)
			(effects
				(font
					(size 1.27 1.27)
				)
				(hide yes)
			)
		)
		(property "ki_keywords" "Jumper SPST"
			(at 0 0 0)
			(effects
				(font
					(size 1.27 1.27)
				)
				(hide yes)
			)
		)
		(property "ki_fp_filters" "Jumper* TestPoint*2Pads* TestPoint*Bridge*"
			(at 0 0 0)
			(effects
				(font
					(size 1.27 1.27)
				)
				(hide yes)
			)
		)
		(symbol "Jumper_2_Open_0_0"
			(circle
				(center -2.032 0)
				(radius 0.508)
				(stroke
					(width 0)
					(type default)
				)
				(fill
					(type none)
				)
			)
			(circle
				(center 2.032 0)
				(radius 0.508)
				(stroke
					(width 0)
					(type default)
				)
				(fill
					(type none)
				)
			)
		)
		(symbol "Jumper_2_Open_0_1"
			(arc
				(start 1.524 1.27)
				(mid 0 1.778)
				(end -1.524 1.27)
				(stroke
					(width 0)
					(type default)
				)
				(fill
					(type none)
				)
			)
		)
		(symbol "Jumper_2_Open_1_1"
			(pin passive line
				(at -5.08 0 0)
				(length 2.54)
				(name "A"
					(effects
						(font
							(size 1.27 1.27)
						)
					)
				)
				(number "1"
					(effects
						(font
							(size 1.27 1.27)
						)
					)
				)
			)
			(pin passive line
				(at 5.08 0 180)
				(length 2.54)
				(name "B"
					(effects
						(font
							(size 1.27 1.27)
						)
					)
				)
				(number "2"
					(effects
						(font
							(size 1.27 1.27)
						)
					)
				)
			)
		)
	)
	(symbol "Jumper_3_Bridged12"
		(pin_names
			(offset 0) hide)
		(exclude_from_sim no)
		(in_bom yes)
		(on_board yes)
		(property "Reference" "JP"
			(at -2.54 -2.54 0)
			(effects
				(font
					(size 1.27 1.27)
				)
			)
		)
		(property "Value" "Jumper_3_Bridged12"
			(at 0 2.794 0)
			(effects
				(font
					(size 1.27 1.27)
				)
			)
		)
		(property "Footprint" ""
			(at 0 0 0)
			(effects
				(font
					(size 1.27 1.27)
				)
				(hide yes)
			)
		)
		(property "Datasheet" "~"
			(at 0 0 0)
			(effects
				(font
					(size 1.27 1.27)
				)
				(hide yes)
			)
		)
		(property "Description" "Jumper, 3-pole, pins 1+2 closed/bridged"
			(at 0 0 0)
			(effects
				(font
					(size 1.27 1.27)
				)
				(hide yes)
			)
		)
		(property "ki_keywords" "Jumper SPDT"
			(at 0 0 0)
			(effects
				(font
					(size 1.27 1.27)
				)
				(hide yes)
			)
		)
		(property "ki_fp_filters" "Jumper* TestPoint*3Pads* TestPoint*Bridge*"
			(at 0 0 0)
			(effects
				(font
					(size 1.27 1.27)
				)
				(hide yes)
			)
		)
		(symbol "Jumper_3_Bridged12_0_0"
			(circle
				(center -3.302 0)
				(radius 0.508)
				(stroke
					(width 0)
					(type default)
				)
				(fill
					(type none)
				)
			)
			(circle
				(center 0 0)
				(radius 0.508)
				(stroke
					(width 0)
					(type default)
				)
				(fill
					(type none)
				)
			)
			(circle
				(center 3.302 0)
				(radius 0.508)
				(stroke
					(width 0)
					(type default)
				)
				(fill
					(type none)
				)
			)
		)
		(symbol "Jumper_3_Bridged12_0_1"
			(arc
				(start -0.254 0.508)
				(mid -1.651 0.9912)
				(end -3.048 0.508)
				(stroke
					(width 0)
					(type default)
				)
				(fill
					(type none)
				)
			)
			(polyline
				(pts
					(xy 0 -1.27) (xy 0 -0.508)
				)
				(stroke
					(width 0)
					(type default)
				)
				(fill
					(type none)
				)
			)
		)
		(symbol "Jumper_3_Bridged12_1_1"
			(pin passive line
				(at -6.35 0 0)
				(length 2.54)
				(name "A"
					(effects
						(font
							(size 1.27 1.27)
						)
					)
				)
				(number "1"
					(effects
						(font
							(size 1.27 1.27)
						)
					)
				)
			)
			(pin passive line
				(at 0 -3.81 90)
				(length 2.54)
				(name "C"
					(effects
						(font
							(size 1.27 1.27)
						)
					)
				)
				(number "2"
					(effects
						(font
							(size 1.27 1.27)
						)
					)
				)
			)
			(pin passive line
				(at 6.35 0 180)
				(length 2.54)
				(name "B"
					(effects
						(font
							(size 1.27 1.27)
						)
					)
				)
				(number "3"
					(effects
						(font
							(size 1.27 1.27)
						)
					)
				)
			)
		)
	)
	(symbol "Jumper_3_Open"
		(pin_names
			(offset 0) hide)
		(exclude_from_sim no)
		(in_bom yes)
		(on_board yes)
		(property "Reference" "JP"
			(at -2.54 -2.54 0)
			(effects
				(font
					(size 1.27 1.27)
				)
			)
		)
		(property "Value" "Jumper_3_Open"
			(at 0 2.794 0)
			(effects
				(font
					(size 1.27 1.27)
				)
			)
		)
		(property "Footprint" ""
			(at 0 0 0)
			(effects
				(font
					(size 1.27 1.27)
				)
				(hide yes)
			)
		)
		(property "Datasheet" "~"
			(at 0 0 0)
			(effects
				(font
					(size 1.27 1.27)
				)
				(hide yes)
			)
		)
		(property "Description" "Jumper, 3-pole, both open"
			(at 0 0 0)
			(effects
				(font
					(size 1.27 1.27)
				)
				(hide yes)
			)
		)
		(property "ki_keywords" "Jumper SPDT"
			(at 0 0 0)
			(effects
				(font
					(size 1.27 1.27)
				)
				(hide yes)
			)
		)
		(property "ki_fp_filters" "Jumper* TestPoint*3Pads* TestPoint*Bridge*"
			(at 0 0 0)
			(effects
				(font
					(size 1.27 1.27)
				)
				(hide yes)
			)
		)
		(symbol "Jumper_3_Open_0_0"
			(circle
				(center -3.302 0)
				(radius 0.508)
				(stroke
					(width 0)
					(type default)
				)
				(fill
					(type none)
				)
			)
			(circle
				(center 0 0)
				(radius 0.508)
				(stroke
					(width 0)
					(type default)
				)
				(fill
					(type none)
				)
			)
			(circle
				(center 3.302 0)
				(radius 0.508)
				(stroke
					(width 0)
					(type default)
				)
				(fill
					(type none)
				)
			)
		)
		(symbol "Jumper_3_Open_0_1"
			(arc
				(start -0.254 1.016)
				(mid -1.651 1.4992)
				(end -3.048 1.016)
				(stroke
					(width 0)
					(type default)
				)
				(fill
					(type none)
				)
			)
			(polyline
				(pts
					(xy 0 -0.508) (xy 0 -1.27)
				)
				(stroke
					(width 0)
					(type default)
				)
				(fill
					(type none)
				)
			)
			(arc
				(start 3.048 1.016)
				(mid 1.651 1.4992)
				(end 0.254 1.016)
				(stroke
					(width 0)
					(type default)
				)
				(fill
					(type none)
				)
			)
		)
		(symbol "Jumper_3_Open_1_1"
			(pin passive line
				(at -6.35 0 0)
				(length 2.54)
				(name "A"
					(effects
						(font
							(size 1.27 1.27)
						)
					)
				)
				(number "1"
					(effects
						(font
							(size 1.27 1.27)
						)
					)
				)
			)
			(pin passive line
				(at 0 -3.81 90)
				(length 2.54)
				(name "C"
					(effects
						(font
							(size 1.27 1.27)
						)
					)
				)
				(number "2"
					(effects
						(font
							(size 1.27 1.27)
						)
					)
				)
			)
			(pin passive line
				(at 6.35 0 180)
				(length 2.54)
				(name "B"
					(effects
						(font
							(size 1.27 1.27)
						)
					)
				)
				(number "3"
					(effects
						(font
							(size 1.27 1.27)
						)
					)
				)
			)
		)
	)
	(symbol "SolderJumper_2_Bridged"
		(pin_names
			(offset 0) hide)
		(exclude_from_sim no)
		(in_bom yes)
		(on_board yes)
		(property "Reference" "JP"
			(at 0 2.032 0)
			(effects
				(font
					(size 1.27 1.27)
				)
			)
		)
		(property "Value" "SolderJumper_2_Bridged"
			(at 0 -2.54 0)
			(effects
				(font
					(size 1.27 1.27)
				)
			)
		)
		(property "Footprint" ""
			(at 0 0 0)
			(effects
				(font
					(size 1.27 1.27)
				)
				(hide yes)
			)
		)
		(property "Datasheet" "~"
			(at 0 0 0)
			(effects
				(font
					(size 1.27 1.27)
				)
				(hide yes)
			)
		)
		(property "Description" "Solder Jumper, 2-pole, closed/bridged"
			(at 0 0 0)
			(effects
				(font
					(size 1.27 1.27)
				)
				(hide yes)
			)
		)
		(property "ki_keywords" "solder jumper SPST"
			(at 0 0 0)
			(effects
				(font
					(size 1.27 1.27)
				)
				(hide yes)
			)
		)
		(property "ki_fp_filters" "SolderJumper*Bridged*"
			(at 0 0 0)
			(effects
				(font
					(size 1.27 1.27)
				)
				(hide yes)
			)
		)
		(symbol "SolderJumper_2_Bridged_0_1"
			(rectangle
				(start -0.508 0.508)
				(end 0.508 -0.508)
				(stroke
					(width 0)
					(type default)
				)
				(fill
					(type outline)
				)
			)
			(arc
				(start -0.254 1.016)
				(mid -1.2656 0)
				(end -0.254 -1.016)
				(stroke
					(width 0)
					(type default)
				)
				(fill
					(type none)
				)
			)
			(arc
				(start -0.254 1.016)
				(mid -1.2656 0)
				(end -0.254 -1.016)
				(stroke
					(width 0)
					(type default)
				)
				(fill
					(type outline)
				)
			)
			(polyline
				(pts
					(xy -0.254 1.016) (xy -0.254 -1.016)
				)
				(stroke
					(width 0)
					(type default)
				)
				(fill
					(type none)
				)
			)
			(polyline
				(pts
					(xy 0.254 1.016) (xy 0.254 -1.016)
				)
				(stroke
					(width 0)
					(type default)
				)
				(fill
					(type none)
				)
			)
			(arc
				(start 0.254 -1.016)
				(mid 1.2656 0)
				(end 0.254 1.016)
				(stroke
					(width 0)
					(type default)
				)
				(fill
					(type none)
				)
			)
			(arc
				(start 0.254 -1.016)
				(mid 1.2656 0)
				(end 0.254 1.016)
				(stroke
					(width 0)
					(type default)
				)
				(fill
					(type outline)
				)
			)
		)
		(symbol "SolderJumper_2_Bridged_1_1"
			(pin passive line
				(at -3.81 0 0)
				(length 2.54)
				(name "A"
					(effects
						(font
							(size 1.27 1.27)
						)
					)
				)
				(number "1"
					(effects
						(font
							(size 1.27 1.27)
						)
					)
				)
			)
			(pin passive line
				(at 3.81 0 180)
				(length 2.54)
				(name "B"
					(effects
						(font
							(size 1.27 1.27)
						)
					)
				)
				(number "2"
					(effects
						(font
							(size 1.27 1.27)
						)
					)
				)
			)
		)
	)
	(symbol "SolderJumper_2_Open"
		(pin_names
			(offset 0) hide)
		(exclude_from_sim no)
		(in_bom yes)
		(on_board yes)
		(property "Reference" "JP"
			(at 0 2.032 0)
			(effects
				(font
					(size 1.27 1.27)
				)
			)
		)
		(property "Value" "SolderJumper_2_Open"
			(at 0 -2.54 0)
			(effects
				(font
					(size 1.27 1.27)
				)
			)
		)
		(property "Footprint" ""
			(at 0 0 0)
			(effects
				(font
					(size 1.27 1.27)
				)
				(hide yes)
			)
		)
		(property "Datasheet" "~"
			(at 0 0 0)
			(effects
				(font
					(size 1.27 1.27)
				)
				(hide yes)
			)
		)
		(property "Description" "Solder Jumper, 2-pole, open"
			(at 0 0 0)
			(effects
				(font
					(size 1.27 1.27)
				)
				(hide yes)
			)
		)
		(property "ki_keywords" "solder jumper SPST"
			(at 0 0 0)
			(effects
				(font
					(size 1.27 1.27)
				)
				(hide yes)
			)
		)
		(property "ki_fp_filters" "SolderJumper*Open*"
			(at 0 0 0)
			(effects
				(font
					(size 1.27 1.27)
				)
				(hide yes)
			)
		)
		(symbol "SolderJumper_2_Open_0_1"
			(arc
				(start -0.254 1.016)
				(mid -1.2656 0)
				(end -0.254 -1.016)
				(stroke
					(width 0)
					(type default)
				)
				(fill
					(type none)
				)
			)
			(arc
				(start -0.254 1.016)
				(mid -1.2656 0)
				(end -0.254 -1.016)
				(stroke
					(width 0)
					(type default)
				)
				(fill
					(type outline)
				)
			)
			(polyline
				(pts
					(xy -0.254 1.016) (xy -0.254 -1.016)
				)
				(stroke
					(width 0)
					(type default)
				)
				(fill
					(type none)
				)
			)
			(polyline
				(pts
					(xy 0.254 1.016) (xy 0.254 -1.016)
				)
				(stroke
					(width 0)
					(type default)
				)
				(fill
					(type none)
				)
			)
			(arc
				(start 0.254 -1.016)
				(mid 1.2656 0)
				(end 0.254 1.016)
				(stroke
					(width 0)
					(type default)
				)
				(fill
					(type none)
				)
			)
			(arc
				(start 0.254 -1.016)
				(mid 1.2656 0)
				(end 0.254 1.016)
				(stroke
					(width 0)
					(type default)
				)
				(fill
					(type outline)
				)
			)
		)
		(symbol "SolderJumper_2_Open_1_1"
			(pin passive line
				(at -3.81 0 0)
				(length 2.54)
				(name "A"
					(effects
						(font
							(size 1.27 1.27)
						)
					)
				)
				(number "1"
					(effects
						(font
							(size 1.27 1.27)
						)
					)
				)
			)
			(pin passive line
				(at 3.81 0 180)
				(length 2.54)
				(name "B"
					(effects
						(font
							(size 1.27 1.27)
						)
					)
				)
				(number "2"
					(effects
						(font
							(size 1.27 1.27)
						)
					)
				)
			)
		)
	)
	(symbol "SolderJumper_3_Bridged12"
		(pin_names
			(offset 0) hide)
		(exclude_from_sim no)
		(in_bom yes)
		(on_board yes)
		(property "Reference" "JP"
			(at -2.54 -2.54 0)
			(effects
				(font
					(size 1.27 1.27)
				)
			)
		)
		(property "Value" "SolderJumper_3_Bridged12"
			(at 0 2.794 0)
			(effects
				(font
					(size 1.27 1.27)
				)
			)
		)
		(property "Footprint" ""
			(at 0 0 0)
			(effects
				(font
					(size 1.27 1.27)
				)
				(hide yes)
			)
		)
		(property "Datasheet" "~"
			(at 0 0 0)
			(effects
				(font
					(size 1.27 1.27)
				)
				(hide yes)
			)
		)
		(property "Description" "3-pole Solder Jumper, pins 1+2 closed/bridged"
			(at 0 0 0)
			(effects
				(font
					(size 1.27 1.27)
				)
				(hide yes)
			)
		)
		(property "ki_keywords" "Solder Jumper SPDT"
			(at 0 0 0)
			(effects
				(font
					(size 1.27 1.27)
				)
				(hide yes)
			)
		)
		(property "ki_fp_filters" "SolderJumper*Bridged12*"
			(at 0 0 0)
			(effects
				(font
					(size 1.27 1.27)
				)
				(hide yes)
			)
		)
		(symbol "SolderJumper_3_Bridged12_0_1"
			(rectangle
				(start -1.016 0.508)
				(end -0.508 -0.508)
				(stroke
					(width 0)
					(type default)
				)
				(fill
					(type outline)
				)
			)
			(arc
				(start -1.016 1.016)
				(mid -2.0276 0)
				(end -1.016 -1.016)
				(stroke
					(width 0)
					(type default)
				)
				(fill
					(type none)
				)
			)
			(arc
				(start -1.016 1.016)
				(mid -2.0276 0)
				(end -1.016 -1.016)
				(stroke
					(width 0)
					(type default)
				)
				(fill
					(type outline)
				)
			)
			(rectangle
				(start -0.508 1.016)
				(end 0.508 -1.016)
				(stroke
					(width 0)
					(type default)
				)
				(fill
					(type outline)
				)
			)
			(polyline
				(pts
					(xy -2.54 0) (xy -2.032 0)
				)
				(stroke
					(width 0)
					(type default)
				)
				(fill
					(type none)
				)
			)
			(polyline
				(pts
					(xy -1.016 1.016) (xy -1.016 -1.016)
				)
				(stroke
					(width 0)
					(type default)
				)
				(fill
					(type none)
				)
			)
			(polyline
				(pts
					(xy 0 -1.27) (xy 0 -1.016)
				)
				(stroke
					(width 0)
					(type default)
				)
				(fill
					(type none)
				)
			)
			(polyline
				(pts
					(xy 1.016 1.016) (xy 1.016 -1.016)
				)
				(stroke
					(width 0)
					(type default)
				)
				(fill
					(type none)
				)
			)
			(polyline
				(pts
					(xy 2.54 0) (xy 2.032 0)
				)
				(stroke
					(width 0)
					(type default)
				)
				(fill
					(type none)
				)
			)
			(arc
				(start 1.016 -1.016)
				(mid 2.0276 0)
				(end 1.016 1.016)
				(stroke
					(width 0)
					(type default)
				)
				(fill
					(type none)
				)
			)
			(arc
				(start 1.016 -1.016)
				(mid 2.0276 0)
				(end 1.016 1.016)
				(stroke
					(width 0)
					(type default)
				)
				(fill
					(type outline)
				)
			)
		)
		(symbol "SolderJumper_3_Bridged12_1_1"
			(pin passive line
				(at -5.08 0 0)
				(length 2.54)
				(name "A"
					(effects
						(font
							(size 1.27 1.27)
						)
					)
				)
				(number "1"
					(effects
						(font
							(size 1.27 1.27)
						)
					)
				)
			)
			(pin passive line
				(at 0 -3.81 90)
				(length 2.54)
				(name "C"
					(effects
						(font
							(size 1.27 1.27)
						)
					)
				)
				(number "2"
					(effects
						(font
							(size 1.27 1.27)
						)
					)
				)
			)
			(pin passive line
				(at 5.08 0 180)
				(length 2.54)
				(name "B"
					(effects
						(font
							(size 1.27 1.27)
						)
					)
				)
				(number "3"
					(effects
						(font
							(size 1.27 1.27)
						)
					)
				)
			)
		)
	)
	(symbol "SolderJumper_3_Bridged123"
		(pin_names
			(offset 0) hide)
		(exclude_from_sim no)
		(in_bom yes)
		(on_board yes)
		(property "Reference" "JP"
			(at -2.54 -2.54 0)
			(effects
				(font
					(size 1.27 1.27)
				)
			)
		)
		(property "Value" "SolderJumper_3_Bridged123"
			(at 0 2.794 0)
			(effects
				(font
					(size 1.27 1.27)
				)
			)
		)
		(property "Footprint" ""
			(at 0 0 0)
			(effects
				(font
					(size 1.27 1.27)
				)
				(hide yes)
			)
		)
		(property "Datasheet" "~"
			(at 0 0 0)
			(effects
				(font
					(size 1.27 1.27)
				)
				(hide yes)
			)
		)
		(property "Description" "Solder Jumper, 3-pole, pins 1+2+3 closed/bridged"
			(at 0 0 0)
			(effects
				(font
					(size 1.27 1.27)
				)
				(hide yes)
			)
		)
		(property "ki_keywords" "Solder Jumper SPDT"
			(at 0 0 0)
			(effects
				(font
					(size 1.27 1.27)
				)
				(hide yes)
			)
		)
		(property "ki_fp_filters" "SolderJumper*Bridged123*"
			(at 0 0 0)
			(effects
				(font
					(size 1.27 1.27)
				)
				(hide yes)
			)
		)
		(symbol "SolderJumper_3_Bridged123_0_1"
			(rectangle
				(start -1.016 0.508)
				(end -0.508 -0.508)
				(stroke
					(width 0)
					(type default)
				)
				(fill
					(type outline)
				)
			)
			(arc
				(start -1.016 1.016)
				(mid -2.0276 0)
				(end -1.016 -1.016)
				(stroke
					(width 0)
					(type default)
				)
				(fill
					(type none)
				)
			)
			(arc
				(start -1.016 1.016)
				(mid -2.0276 0)
				(end -1.016 -1.016)
				(stroke
					(width 0)
					(type default)
				)
				(fill
					(type outline)
				)
			)
			(rectangle
				(start -0.508 1.016)
				(end 0.508 -1.016)
				(stroke
					(width 0)
					(type default)
				)
				(fill
					(type outline)
				)
			)
			(polyline
				(pts
					(xy -2.54 0) (xy -2.032 0)
				)
				(stroke
					(width 0)
					(type default)
				)
				(fill
					(type none)
				)
			)
			(polyline
				(pts
					(xy -1.016 1.016) (xy -1.016 -1.016)
				)
				(stroke
					(width 0)
					(type default)
				)
				(fill
					(type none)
				)
			)
			(polyline
				(pts
					(xy 0 -1.27) (xy 0 -1.016)
				)
				(stroke
					(width 0)
					(type default)
				)
				(fill
					(type none)
				)
			)
			(polyline
				(pts
					(xy 1.016 1.016) (xy 1.016 -1.016)
				)
				(stroke
					(width 0)
					(type default)
				)
				(fill
					(type none)
				)
			)
			(polyline
				(pts
					(xy 2.54 0) (xy 2.032 0)
				)
				(stroke
					(width 0)
					(type default)
				)
				(fill
					(type none)
				)
			)
			(rectangle
				(start 0.508 0.508)
				(end 1.016 -0.508)
				(stroke
					(width 0)
					(type default)
				)
				(fill
					(type outline)
				)
			)
			(arc
				(start 1.016 -1.016)
				(mid 2.0276 0)
				(end 1.016 1.016)
				(stroke
					(width 0)
					(type default)
				)
				(fill
					(type none)
				)
			)
			(arc
				(start 1.016 -1.016)
				(mid 2.0276 0)
				(end 1.016 1.016)
				(stroke
					(width 0)
					(type default)
				)
				(fill
					(type outline)
				)
			)
		)
		(symbol "SolderJumper_3_Bridged123_1_1"
			(pin passive line
				(at -5.08 0 0)
				(length 2.54)
				(name "A"
					(effects
						(font
							(size 1.27 1.27)
						)
					)
				)
				(number "1"
					(effects
						(font
							(size 1.27 1.27)
						)
					)
				)
			)
			(pin passive line
				(at 0 -3.81 90)
				(length 2.54)
				(name "C"
					(effects
						(font
							(size 1.27 1.27)
						)
					)
				)
				(number "2"
					(effects
						(font
							(size 1.27 1.27)
						)
					)
				)
			)
			(pin passive line
				(at 5.08 0 180)
				(length 2.54)
				(name "B"
					(effects
						(font
							(size 1.27 1.27)
						)
					)
				)
				(number "3"
					(effects
						(font
							(size 1.27 1.27)
						)
					)
				)
			)
		)
	)
	(symbol "SolderJumper_3_Open"
		(pin_names
			(offset 0) hide)
		(exclude_from_sim no)
		(in_bom yes)
		(on_board yes)
		(property "Reference" "JP"
			(at -2.54 -2.54 0)
			(effects
				(font
					(size 1.27 1.27)
				)
			)
		)
		(property "Value" "SolderJumper_3_Open"
			(at 0 2.794 0)
			(effects
				(font
					(size 1.27 1.27)
				)
			)
		)
		(property "Footprint" ""
			(at 0 0 0)
			(effects
				(font
					(size 1.27 1.27)
				)
				(hide yes)
			)
		)
		(property "Datasheet" "~"
			(at 0 0 0)
			(effects
				(font
					(size 1.27 1.27)
				)
				(hide yes)
			)
		)
		(property "Description" "Solder Jumper, 3-pole, open"
			(at 0 0 0)
			(effects
				(font
					(size 1.27 1.27)
				)
				(hide yes)
			)
		)
		(property "ki_keywords" "Solder Jumper SPDT"
			(at 0 0 0)
			(effects
				(font
					(size 1.27 1.27)
				)
				(hide yes)
			)
		)
		(property "ki_fp_filters" "SolderJumper*Open*"
			(at 0 0 0)
			(effects
				(font
					(size 1.27 1.27)
				)
				(hide yes)
			)
		)
		(symbol "SolderJumper_3_Open_0_1"
			(arc
				(start -1.016 1.016)
				(mid -2.0276 0)
				(end -1.016 -1.016)
				(stroke
					(width 0)
					(type default)
				)
				(fill
					(type none)
				)
			)
			(arc
				(start -1.016 1.016)
				(mid -2.0276 0)
				(end -1.016 -1.016)
				(stroke
					(width 0)
					(type default)
				)
				(fill
					(type outline)
				)
			)
			(rectangle
				(start -0.508 1.016)
				(end 0.508 -1.016)
				(stroke
					(width 0)
					(type default)
				)
				(fill
					(type outline)
				)
			)
			(polyline
				(pts
					(xy -2.54 0) (xy -2.032 0)
				)
				(stroke
					(width 0)
					(type default)
				)
				(fill
					(type none)
				)
			)
			(polyline
				(pts
					(xy -1.016 1.016) (xy -1.016 -1.016)
				)
				(stroke
					(width 0)
					(type default)
				)
				(fill
					(type none)
				)
			)
			(polyline
				(pts
					(xy 0 -1.27) (xy 0 -1.016)
				)
				(stroke
					(width 0)
					(type default)
				)
				(fill
					(type none)
				)
			)
			(polyline
				(pts
					(xy 1.016 1.016) (xy 1.016 -1.016)
				)
				(stroke
					(width 0)
					(type default)
				)
				(fill
					(type none)
				)
			)
			(polyline
				(pts
					(xy 2.54 0) (xy 2.032 0)
				)
				(stroke
					(width 0)
					(type default)
				)
				(fill
					(type none)
				)
			)
			(arc
				(start 1.016 -1.016)
				(mid 2.0276 0)
				(end 1.016 1.016)
				(stroke
					(width 0)
					(type default)
				)
				(fill
					(type none)
				)
			)
			(arc
				(start 1.016 -1.016)
				(mid 2.0276 0)
				(end 1.016 1.016)
				(stroke
					(width 0)
					(type default)
				)
				(fill
					(type outline)
				)
			)
		)
		(symbol "SolderJumper_3_Open_1_1"
			(pin passive line
				(at -5.08 0 0)
				(length 2.54)
				(name "A"
					(effects
						(font
							(size 1.27 1.27)
						)
					)
				)
				(number "1"
					(effects
						(font
							(size 1.27 1.27)
						)
					)
				)
			)
			(pin passive line
				(at 0 -3.81 90)
				(length 2.54)
				(name "C"
					(effects
						(font
							(size 1.27 1.27)
						)
					)
				)
				(number "2"
					(effects
						(font
							(size 1.27 1.27)
						)
					)
				)
			)
			(pin passive line
				(at 5.08 0 180)
				(length 2.54)
				(name "B"
					(effects
						(font
							(size 1.27 1.27)
						)
					)
				)
				(number "3"
					(effects
						(font
							(size 1.27 1.27)
						)
					)
				)
			)
		)
	)
)